MATH2319_Assignment_Part1
…
Numeric Features

#--------------------[Price 1]----------------------#

price1 <- train$price1
summary(price1)

##    Min. 1st Qu.  Median    Mean 3rd Qu.    Max. 
##  0.0000  0.0000  0.0100  0.4382  0.1900 14.6900

train %>% 
    group_by(price1) %>% 
    dplyr::summarise(count=n())

## # A tibble: 514 x 2
##    price1 count
##     <dbl> <int>
##  1 0.     92892
##  2 0.0100 19880
##  3 0.0200  6153
##  4 0.0300  3382
##  5 0.0400   842
##  6 0.0500  8714
##  7 0.0600  2750
##  8 0.0700  2591
##  9 0.0800  1842
## 10 0.0900  1463
## # ... with 504 more rows

price1_log <- train_log$price1
summary(price1_log)

##    Min. 1st Qu.  Median    Mean 3rd Qu.    Max. 
##  -2.303  -2.303  -2.207  -1.574  -1.238   2.694

train_log%>% 
    group_by(price1) %>% 
    dplyr::summarise(count=n())

## # A tibble: 514 x 2
##    price1 count
##     <dbl> <int>
##  1  -2.30 92892
##  2  -2.21 19880
##  3  -2.12  6153
##  4  -2.04  3382
##  5  -1.97   842
##  6  -1.90  8714
##  7  -1.83  2750
##  8  -1.77  2591
##  9  -1.71  1842
## 10  -1.66  1463
## # ... with 504 more rows
…
#--------------------[Price 2]----------------------#

price2 <- train$price2
summary(price2)

##    Min. 1st Qu.  Median    Mean 3rd Qu.    Max. 
##  0.0000  0.0000  0.0900  0.6302  0.5700 63.1200

train %>% 
    group_by(price2) %>% 
    dplyr::summarise(count=n())

## # A tibble: 744 x 2
##    price2 count
##     <dbl> <int>
##  1 0.     92804
##  2 0.0100   838
##  3 0.0200   314
##  4 0.0300   788
##  5 0.0400    93
##  6 0.0500  4664
##  7 0.0600  1946
##  8 0.0700  2240
##  9 0.0800  2222
## 10 0.0900  2111
## # ... with 734 more rows

price2_log <- train_log$price2
summary(price2_log)

##    Min. 1st Qu.  Median    Mean 3rd Qu.    Max. 
## -2.3026 -2.3026 -1.6607 -1.2533 -0.4005  4.1466

train_log%>% 
    group_by(price2) %>% 
    dplyr::summarise(count=n())

## # A tibble: 744 x 2
##    price2 count
##     <dbl> <int>
##  1  -2.30 92804
##  2  -2.21   838
##  3  -2.12   314
##  4  -2.04   788
##  5  -1.97    93
##  6  -1.90  4664
##  7  -1.83  1946
##  8  -1.77  2240
##  9  -1.71  2222
## 10  -1.66  2111
## # ... with 734 more rows
…
#--------------------[Price 3]----------------------#

price3 <- train$price3
summary(price3)

##    Min. 1st Qu.  Median    Mean 3rd Qu.    Max. 
##  0.0000  0.0000  0.2948  0.9324  0.9857 78.9000

train %>% 
    group_by(price3) %>% 
    dplyr::summarise(count=n())

## # A tibble: 5,185 x 2
##    price3 count
##     <dbl> <int>
##  1 0.     92804
##  2 0.0100    35
##  3 0.0500  3331
##  4 0.0800     4
##  5 0.100   1527
##  6 0.110      6
##  7 0.140      1
##  8 0.170      1
##  9 0.200   4561
## 10 0.210      8
## # ... with 5,175 more rows

price3_log <- train_log$price3
summary(price3_log)

##     Min.  1st Qu.   Median     Mean  3rd Qu.     Max. 
## -2.30259 -2.30259 -0.92938 -0.97585  0.08218  4.36945

train_log%>% 
    group_by(price3) %>% 
    dplyr::summarise(count=n())

## # A tibble: 5,185 x 2
##    price3 count
##     <dbl> <int>
##  1  -2.30 92804
##  2  -2.21    35
##  3  -1.90  3331
##  4  -1.71     4
##  5  -1.61  1527
##  6  -1.56     6
##  7  -1.43     1
##  8  -1.31     1
##  9  -1.20  4561
## 10  -1.17     8
## # ... with 5,175 more rows
…
Majority of values are zero and the distribution is heavily positively skewed. The log transformation normalises the distibution slightly, but as it does not offer much improvement, we will use the original data.

#--------------------[Ad Area]----------------------#

ad_area <- train$ad_area
summary(ad_area)

##    Min. 1st Qu.  Median    Mean 3rd Qu.    Max. 
##  0.0001  0.0001  0.0001  4.7245  7.5000 36.0000

train %>% 
    group_by(ad_area) %>% 
    dplyr::summarise(count=n())

## # A tibble: 56 x 2
##     ad_area  count
##       <dbl>  <int>
##  1 0.000100 112028
##  2 1.60       4500
##  3 2.81        431
##  4 3.19         18
##  5 3.20       2762
##  6 3.81         46
##  7 3.84        131
##  8 3.96         60
##  9 4.00         43
## 10 5.10         25
## # ... with 46 more rows

ad_area_log <- train_log$ad_area
summary(ad_area_log)

##    Min. 1st Qu.  Median    Mean 3rd Qu.    Max. 
##  -9.210  -9.210  -9.210  -3.797   2.015   3.584

train_log%>% 
    group_by(ad_area) %>% 
    dplyr::summarise(count=n())

## # A tibble: 56 x 2
##    ad_area  count
##      <dbl>  <int>
##  1  -9.21  112028
##  2   0.470   4500
##  3   1.03     431
##  4   1.16      18
##  5   1.16    2762
##  6   1.34      46
##  7   1.35     131
##  8   1.38      60
##  9   1.39      43
## 10   1.63      25
## # ... with 46 more rows
…
#--------------------[Ad Ratio]----------------------#

ad_ratio <- train$ad_ratio
summary(ad_ratio)

##    Min. 1st Qu.  Median    Mean 3rd Qu.    Max. 
## 0.08333 0.83333 1.00000 0.92340 1.00000 5.00000

train %>% 
    group_by(ad_ratio) %>% 
    dplyr::summarise(count=n())

## # A tibble: 61 x 2
##    ad_ratio count
##       <dbl> <int>
##  1   0.0833    26
##  2   0.0900    65
##  3   0.0909    60
##  4   0.0928  2108
##  5   0.0938   131
##  6   0.0945    46
##  7   0.102     59
##  8   0.108     22
##  9   0.110     20
## 10   0.114     92
## # ... with 51 more rows

ad_ratio_log <- train_log$ad_ratio
summary(ad_ratio_log)

##    Min. 1st Qu.  Median    Mean 3rd Qu.    Max. 
## -2.4849 -0.1823  0.0000 -0.2616  0.0000  1.6094

train_log%>% 
    group_by(ad_ratio) %>% 
    dplyr::summarise(count=n())

## # A tibble: 61 x 2
##    ad_ratio count
##       <dbl> <int>
##  1    -2.48    26
##  2    -2.41    65
##  3    -2.40    60
##  4    -2.38  2108
##  5    -2.37   131
##  6    -2.36    46
##  7    -2.28    59
##  8    -2.22    22
##  9    -2.20    20
## 10    -2.17    92
## # ... with 51 more rows
…
The log transformation does not do much to normalise the distribution of the data.

#--------------------[Requests]----------------------#

requests <- train$requests
summary(requests)

##    Min. 1st Qu.  Median    Mean 3rd Qu.    Max. 
##       0       0     147    8679    1633 6701924

train %>% 
    group_by(requests) %>% 
    dplyr::summarise(count=n())

## # A tibble: 23,711 x 2
##    requests count
##       <int> <int>
##  1        0 78874
##  2        3   343
##  3        4   412
##  4        5   403
##  5        6   427
##  6        7   414
##  7        8   422
##  8        9   400
##  9       10   397
## 10       11   393
## # ... with 23,701 more rows

requests_log <- train_log$requests
summary(requests_log)

##    Min. 1st Qu.  Median    Mean 3rd Qu.    Max. 
##  -2.303  -2.303   4.991   3.441   7.398  15.718

train_log%>% 
    group_by(requests) %>% 
    dplyr::summarise(count=n())

## # A tibble: 23,711 x 2
##    requests count
##       <dbl> <int>
##  1    -2.30 78874
##  2     1.13   343
##  3     1.41   412
##  4     1.63   403
##  5     1.81   427
##  6     1.96   414
##  7     2.09   422
##  8     2.21   400
##  9     2.31   397
## 10     2.41   393
## # ... with 23,701 more rows
…
#--------------------[Impression]----------------------#

impression <- train$impression
summary(impression)

##    Min. 1st Qu.  Median    Mean 3rd Qu.    Max. 
##       0       0      99    5586    1058 6100324

train %>% 
    group_by(impression) %>% 
    dplyr::summarise(count=n())

## # A tibble: 17,904 x 2
##    impression count
##         <int> <int>
##  1          0 78874
##  2          1    89
##  3          2   200
##  4          3   493
##  5          4   608
##  6          5   617
##  7          6   586
##  8          7   569
##  9          8   582
## 10          9   496
## # ... with 17,894 more rows

impression_log <- train_log$impression
summary(impression_log)

##    Min. 1st Qu.  Median    Mean 3rd Qu.    Max. 
##  -2.303  -2.303   4.596   3.154   6.964  15.624

train_log%>% 
    group_by(impression) %>% 
    dplyr::summarise(count=n())

## # A tibble: 17,904 x 2
##    impression count
##         <dbl> <int>
##  1    -2.30   78874
##  2     0.0953    89
##  3     0.742    200
##  4     1.13     493
##  5     1.41     608
##  6     1.63     617
##  7     1.81     586
##  8     1.96     569
##  9     2.09     582
## 10     2.21     496
## # ... with 17,894 more rows
…
The log transformation improves the distribution of the data.

#--------------------[CPC - Cost per click]----------------------#

cpc <- train$cpc
summary(cpc)

##     Min.  1st Qu.   Median     Mean  3rd Qu.     Max. 
##   0.0000   0.0000   0.0157   0.1779   0.1252 132.5339

train %>% 
    group_by(cpc) %>% 
    dplyr::summarise(count=n())

## # A tibble: 15,670 x 2
##         cpc count
##       <dbl> <int>
##  1 0.       78913
##  2 0.000100   278
##  3 0.000200   236
##  4 0.000300   197
##  5 0.000400   264
##  6 0.000500   210
##  7 0.000600   268
##  8 0.000700   194
##  9 0.000800   232
## 10 0.000900   198
## # ... with 15,660 more rows

cpc_log <- train_log$cpc
summary(cpc_log)

##    Min. 1st Qu.  Median    Mean 3rd Qu.    Max. 
##  -2.303  -2.303  -2.157  -1.773  -1.491   4.888

train_log%>% 
    group_by(cpc) %>% 
    dplyr::summarise(count=n())

## # A tibble: 15,670 x 2
##      cpc count
##    <dbl> <int>
##  1 -2.30 78913
##  2 -2.30   278
##  3 -2.30   236
##  4 -2.30   197
##  5 -2.30   264
##  6 -2.30   210
##  7 -2.30   268
##  8 -2.30   194
##  9 -2.29   232
## 10 -2.29   198
## # ... with 15,660 more rows
…
#--------------------[CTR - click through rate]----------------------#

ctr <- train$ctr
summary(ctr)

##    Min. 1st Qu.  Median    Mean 3rd Qu.    Max. 
## 0.00000 0.00000 0.00170 0.03292 0.01200 2.00000

train %>% 
    group_by(ctr) %>% 
    dplyr::summarise(count=n())

## # A tibble: 4,277 x 2
##         ctr count
##       <dbl> <int>
##  1 0.       78957
##  2 0.000100   459
##  3 0.000200  1080
##  4 0.000300  1517
##  5 0.000400  1779
##  6 0.000500  1842
##  7 0.000600  1987
##  8 0.000700  2043
##  9 0.000800  2042
## 10 0.000900  1978
## # ... with 4,267 more rows

ctr_log <- train_log$ctr
summary(ctr_log)

##    Min. 1st Qu.  Median    Mean 3rd Qu.    Max. 
## -2.3026 -2.3026 -2.2857 -2.1223 -2.1893  0.7419

train_log%>% 
    group_by(ctr) %>% 
    dplyr::summarise(count=n())

## # A tibble: 4,277 x 2
##      ctr count
##    <dbl> <int>
##  1 -2.30 78957
##  2 -2.30   459
##  3 -2.30  1080
##  4 -2.30  1517
##  5 -2.30  1779
##  6 -2.30  1842
##  7 -2.30  1987
##  8 -2.30  2043
##  9 -2.29  2042
## 10 -2.29  1978
## # ... with 4,267 more rows
…
Majority of values are zero and the log transformation does not do much to improve the skewedness of the data. Additional analysis is conducted below in order to disaggregate the zero value instances from the rest.

#--------------------[Viewability]----------------------#

viewability <- train$viewability
summary(viewability)

##    Min. 1st Qu.  Median    Mean 3rd Qu.    Max. 
##  0.0000  0.0000  0.3315  0.3779  0.7159  7.0000

train %>% 
    group_by(viewability) %>% 
    dplyr::summarise(count=n())

## # A tibble: 10,533 x 2
##    viewability count
##          <dbl> <int>
##  1    0.       79754
##  2    0.000400     2
##  3    0.000500     1
##  4    0.000600     2
##  5    0.000700     4
##  6    0.000800     3
##  7    0.000900     6
##  8    0.00100      3
##  9    0.00110      2
## 10    0.00120      2
## # ... with 10,523 more rows

viewability_log <- train_log$viewability
summary(viewability_log)

##    Min. 1st Qu.  Median    Mean 3rd Qu.    Max. 
## -2.3026 -2.3026 -0.8405 -1.1468 -0.2035  1.9601

train_log%>% 
    group_by(viewability) %>% 
    dplyr::summarise(count=n())

## # A tibble: 10,533 x 2
##    viewability count
##          <dbl> <int>
##  1       -2.30 79754
##  2       -2.30     2
##  3       -2.30     1
##  4       -2.30     2
##  5       -2.30     4
##  6       -2.29     3
##  7       -2.29     6
##  8       -2.29     3
##  9       -2.29     2
## 10       -2.29     2
## # ... with 10,523 more rows
…
Similar to the other advertisement metric data, the majority of instances take on the value of zero. The log transformation improves the skewedness of the data.

#--------------------[Ratio 1]----------------------#

summary(advertising_train$ratio1)

##    Min. 1st Qu.  Median    Mean 3rd Qu.    Max. 
##  0.0000  0.0000  0.7500  0.5583  1.0000  1.0000

advertising_train %>% 
    group_by(ratio1) %>% 
    dplyr::summarise(count=n())

## # A tibble: 7,325 x 2
##      ratio1 count
##       <dbl> <int>
##  1 0.       78920
##  2 0.000300     1
##  3 0.000500     1
##  4 0.000600     1
##  5 0.000800     3
##  6 0.00100      1
##  7 0.00110      1
##  8 0.00120      1
##  9 0.00130      1
## 10 0.00160      1
## # ... with 7,315 more rows
…
#--------------------[Ratio 2]----------------------#

summary(advertising_train$ratio2)

##    Min. 1st Qu.  Median    Mean 3rd Qu.    Max. 
##  0.0000  0.0000  0.6271  0.4911  0.8957  1.0270

advertising_train %>% 
    group_by(ratio2) %>% 
    dplyr::summarise(count=n())

## # A tibble: 9,418 x 2
##      ratio2 count
##       <dbl> <int>
##  1 0.       78874
##  2 0.000100     2
##  3 0.000500     1
##  4 0.000600     2
##  5 0.000700     1
##  6 0.000800     1
##  7 0.000900     2
##  8 0.00100      1
##  9 0.00110      1
## 10 0.00120      1
## # ... with 9,408 more rows
…
#--------------------[Ratio 3]----------------------#

summary(advertising_train$ratio3)

##    Min. 1st Qu.  Median    Mean 3rd Qu.    Max. 
##  0.0000  0.0000  0.0276  0.3116  1.0000  1.5000

advertising_train %>% 
    group_by(ratio3) %>% 
    dplyr::summarise(count=n())

## # A tibble: 4,358 x 2
##      ratio3 count
##       <dbl> <int>
##  1 0.       94578
##  2 0.000100     2
##  3 0.000200    14
##  4 0.000300    12
##  5 0.000400    26
##  6 0.000500    23
##  7 0.000600    30
##  8 0.000700    32
##  9 0.000800    44
## 10 0.000900    25
## # ... with 4,348 more rows
…
#--------------------[Ratio 4]----------------------#

summary(advertising_train$ratio4)

##    Min. 1st Qu.  Median    Mean 3rd Qu.    Max. 
##  0.0000  0.0000  0.0000  0.1310  0.1636  1.0769

advertising_train %>% 
    group_by(ratio4) %>% 
    dplyr::summarise(count=n())

## # A tibble: 9,615 x 2
##      ratio4  count
##       <dbl>  <int>
##  1 0.       144465
##  2 0.000200      1
##  3 0.00160       1
##  4 0.00170       1
##  5 0.00200       1
##  6 0.00210       1
##  7 0.00230       2
##  8 0.00250       2
##  9 0.00260       5
## 10 0.00270       1
## # ... with 9,605 more rows
…
#--------------------[Ratio 5]----------------------#

summary(advertising_train$ratio5)

##    Min. 1st Qu.  Median    Mean 3rd Qu.    Max. 
##  0.0000  0.0000  0.0000  0.1883  0.3847  1.2000

advertising_train %>% 
    group_by(ratio5) %>% 
    dplyr::summarise(count=n())

## # A tibble: 9,315 x 2
##     ratio5  count
##      <dbl>  <int>
##  1 0.      142295
##  2 0.00170      1
##  3 0.00220      1
##  4 0.00270      1
##  5 0.00290      1
##  6 0.00330      1
##  7 0.00440      1
##  8 0.00490      1
##  9 0.00510      1
## 10 0.00530      1
## # ... with 9,305 more rows
…
We pressume that these ratio features are calculated using the other advertisement metrics data. As such, it is no surprise to see a large amount of zero values. However, the normalising nature of the ratios nicely constrains the data values between 0 and 1. We have chosen not to use the log transformation on the Ratio features as they are constrained and not as skewed as some of the other metrics. Since we do not have information on how these ratios are calculated, our understanding of their use will come from examining correlation between ratios and other features later in the report.

#--------------------[Target Variable (y)]----------------------#

y <- train$y
summary(y)

##    Min. 1st Qu.  Median    Mean 3rd Qu.    Max. 
##  0.0001  0.1504  0.4190  0.8470  0.9590 47.0600

train %>% 
    group_by(y) %>% 
    dplyr::summarise(count=n())

## # A tibble: 167,458 x 2
##            y count
##        <dbl> <int>
##  1 0.0000979     1
##  2 0.000151      1
##  3 0.000168      1
##  4 0.000193      1
##  5 0.000213      1
##  6 0.000261      1
##  7 0.000297      1
##  8 0.000372      1
##  9 0.000403      1
## 10 0.000413      1
## # ... with 167,448 more rows

y_log <- train_log$y
summary(y_log)

##     Min.  1st Qu.   Median     Mean  3rd Qu.     Max. 
## -9.23156 -1.89435 -0.86988 -1.00551 -0.04181  3.85142

train_log%>% 
    group_by(y) %>% 
    dplyr::summarise(count=n())

## # A tibble: 167,458 x 2
##        y count
##    <dbl> <int>
##  1 -9.23     1
##  2 -8.80     1
##  3 -8.69     1
##  4 -8.55     1
##  5 -8.45     1
##  6 -8.25     1
##  7 -8.12     1
##  8 -7.90     1
##  9 -7.82     1
## 10 -7.79     1
## # ... with 167,448 more rows
…
